%YAML 1.1
%TAG !u! tag:unity3d.com,2011:
--- !u!1045 &1
EditorBuildSettings:
  m_ObjectHideFlags: 0
  serializedVersion: 2
  m_Scenes:
  - enabled: 0
    path: 
    guid: 00000000000000000000000000000000
  - enabled: 1
    path: Assets/Scenes/fase.unity
    guid: c84a25f025b08e9469b890dfa28d77ce
  - enabled: 1
    path: Assets/Scenes/Fin.unity
    guid: f2c7cf1c66ac356469717f4d5991d0cc
  m_configObjects: {}
